"timestamp","balance_min","balance_max","equity_min","equity_max"
"1419984000000","1000","1000","1009.98","996.62"
"1420070400000","1000","1000","1001.8","1001.76"
"1420156800000","974.4","989.71","1001.76","974.4"
"1420243200000","974.4","989.71","974.4","974.4"
"1420329600000","974.4","989.71","974.4","974.4"
"1420416000000","974.4","989.71","974.4","974.4"
"1420502400000","974.4","989.71","974.4","974.4"
"1420588800000","974.4","989.71","974.4","974.4"
"1420675200000","974.4","989.71","974.4","974.4"
"1420761600000","974.4","989.71","974.4","974.4"
"1420848000000","974.4","989.71","974.4","974.4"
"1420934400000","974.4","989.71","974.4","974.4"
"1421020800000","974.4","989.71","974.4","974.4"
"1421107200000","974.4","989.71","974.4","974.4"
"1421193600000","974.4","989.71","974.4","974.4"
"1421280000000","974.4","989.71","974.4","974.4"
"1421366400000","974.4","989.71","974.4","974.4"
"1421452800000","974.4","989.71","974.4","974.4"
"1421539200000","974.4","989.71","974.4","974.4"
"1421625600000","974.4","989.71","974.4","974.4"
"1421712000000","974.4","989.71","974.4","974.4"
"1421798400000","974.4","989.71","974.4","974.4"
"1421884800000","974.4","989.71","974.4","974.4"
"1421971200000","974.4","989.71","974.4","974.4"
"1422057600000","974.4","989.71","974.4","974.4"
"1422144000000","974.4","989.71","974.4","974.4"
"1422230400000","974.4","989.71","974.4","974.4"
"1422316800000","974.4","989.71","974.4","974.4"
"1422403200000","974.4","989.71","974.4","974.4"
"1422489600000","974.4","989.71","974.4","974.4"
"1422576000000","974.4","989.71","974.4","974.4"
"1422662400000","974.4","989.71","974.4","974.4"
"1422748800000","974.4","989.71","974.4","974.4"
"1422835200000","974.4","989.71","974.4","974.4"
"1422921600000","974.4","989.71","974.4","974.4"
"1423008000000","974.4","989.71","974.4","974.4"
"1423094400000","974.4","974.4","981.57","973.97"
"1423180800000","974.4","974.4","982.35","968.41"
"1423267200000","974.4","974.4","971.83","971.83"
"1423353600000","974.4","974.4","972.17","969.37"
"1423440000000","974.4","974.4","973.72","967.5"
"1423526400000","974.4","974.4","974.56","967.4"
"1423612800000","974.4","974.4","977.06","969.12"
"1423699200000","974.4","974.4","988.45","968.59"
"1423785600000","974.4","974.4","988.97","984.57"
"1423872000000","974.4","974.4","987.11","987.11"
"1423958400000","974.4","974.4","989.3","986.45"
"1424044800000","974.4","974.4","991.01","981.08"
"1424131200000","974.4","974.4","987.15","978.72"
"1424217600000","974.4","974.4","994.74","981.35"
"1424304000000","974.4","974.4","993.48","987.54"
"1424390400000","974.4","974.4","990.28","981.53"
"1424476800000","974.4","974.4","986.97","986.97"
"1424563200000","974.4","974.4","986.97","986.97"
"1424649600000","974.4","974.4","993.99","980.29"
"1424736000000","974.4","974.4","994.2","987.16"
"1424822400000","974.4","974.4","1000.44","991.6"
"1424908800000","974.4","974.4","1002.03","986.31"
"1424995200000","974.4","974.4","992.65","985.4"
"1425081600000","974.4","974.4","990.05","990.03"
"1425168000000","974.4","974.4","990.03","990.03"
"1425254400000","974.4","974.4","990.03","982.04"
"1425340800000","974.4","974.4","986.48","981.33"
"1425427200000","974.4","974.4","983.9","972.24"
"1425513600000","971.65","971.65","973.64","971.49"
"1425600000000","971.65","971.65","971.65","971.65"
"1425686400000","971.65","971.65","971.65","971.65"
"1425772800000","971.65","971.65","971.65","971.65"
"1425859200000","971.65","971.65","971.65","971.65"
"1425945600000","971.65","971.65","971.65","971.65"
"1426032000000","971.65","971.65","971.65","971.65"
"1426118400000","971.65","972.21","975.83","949.33"
"1426204800000","953.81","978.84","980.11","944.15"
"1426291200000","953.81","978.84","978.84","978.84"
"1426377600000","953.81","978.84","978.84","978.84"
"1426464000000","953.81","978.84","978.84","978.84"
"1426550400000","953.81","978.84","978.84","978.84"
"1426636800000","953.81","978.84","978.84","978.84"
"1426723200000","953.81","978.84","978.84","978.84"
"1426809600000","953.81","978.84","978.84","978.84"
"1426896000000","953.81","978.84","978.84","978.84"
"1426982400000","953.81","978.84","978.84","978.84"
"1427068800000","953.81","978.84","978.84","978.84"
"1427155200000","953.81","978.84","978.84","978.84"
"1427241600000","953.81","978.84","978.84","978.84"
"1427328000000","953.81","978.84","978.84","978.84"
"1427414400000","953.81","978.84","978.84","978.84"
"1427500800000","953.81","978.84","978.84","978.84"
"1427587200000","953.81","978.84","978.84","978.84"
"1427673600000","953.81","978.84","978.84","978.84"
"1427760000000","953.81","978.84","978.84","978.84"
"1427846400000","953.81","978.84","978.84","978.84"
"1427932800000","953.81","978.84","978.84","978.84"
"1428019200000","953.81","978.84","978.84","978.84"
"1428105600000","953.81","978.84","978.84","978.84"
"1428192000000","953.81","978.84","978.84","978.84"
"1428278400000","953.81","978.84","978.84","978.84"
"1428364800000","953.81","978.84","978.84","978.84"
"1428451200000","953.81","978.84","978.84","978.84"
"1428537600000","953.81","978.84","978.84","978.84"
"1428624000000","953.81","978.84","978.84","978.84"
"1428710400000","953.81","978.84","978.84","978.84"
"1428796800000","953.81","978.84","978.84","978.84"
"1428883200000","953.81","978.84","978.84","978.84"
"1428969600000","953.81","978.84","978.84","978.84"
"1429056000000","953.81","978.84","978.84","978.84"
"1429142400000","953.81","978.84","978.84","978.84"
"1429228800000","953.81","978.84","978.84","978.84"
"1429315200000","953.81","978.84","978.84","978.84"
"1429401600000","953.81","978.84","978.84","978.84"
"1429488000000","978.84","978.84","980.69","945.08"
"1429574400000","978.84","978.84","986.61","934.76"
"1429660800000","928.78","978.84","979.3","901.17"
"1429747200000","928.78","940.8","973.58","900.28"
"1429833600000","940.8","951.17","992.14","944.94"
"1429920000000","940.8","951.17","969.8","969.76"
"1430092800000","934.28","951.17","981.59","957.48"
"1430179200000","921.69","934.28","997.33","955.65"
"1430265600000","1013.58","1013.58","1016.06","980.43"
"1430352000000","1013.58","1077.93","1094.29","1005.13"
"1430438400000","1077.93","1088.4","1121.39","1027.12"
"1430524800000","1077.93","1088.4","1110.51","1110.51"
"1430697600000","1075.81","1088.4","1123.56","1063.97"
"1430784000000","1075.81","1075.81","1106.9","1077.96"
"1430870400000","1016.74","1112.54","1096.68","1062.39"
"1430956800000","958.65","1016.74","1089.23","990.25"
"1431043200000","990.18","1008.2","1041.2","990.34"
"1431129600000","990.18","1008.2","1006.4","1006.38"
"1431302400000","990.18","990.18","1020.79","996.02"
"1431388800000","939.27","990.18","1021.07","960.84"
"1431475200000","939.27","990.18","1035.93","952.06"
"1431561600000","939.27","990.18","1096.8","1010.34"
"1431648000000","974.85","994.82","1119.69","1050.8"
"1431734400000","974.85","994.82","1112.68","1112.63"
"1431820800000","974.85","994.82","1112.63","1112.63"
"1431907200000","1117.44","1117.44","1119.75","1105.21"
"1431993600000","1117.44","1117.44","1117.44","1117.44"
"1432080000000","1117.44","1117.44","1117.44","1117.44"
"1432166400000","1117.44","1117.44","1117.44","1117.44"
"1432252800000","1117.44","1117.44","1117.44","1117.44"
"1432339200000","1117.44","1117.44","1117.44","1117.44"
"1432425600000","1117.44","1117.44","1117.44","1117.44"
"1432512000000","1117.44","1117.44","1117.44","1115.5"
"1432598400000","1117.44","1117.44","1120.76","1098.94"
"1432684800000","1117.44","1117.44","1112.54","1084.31"
"1432771200000","1117.44","1117.44","1089.92","1050.07"
"1432857600000","1117.44","1117.44","1072.48","1014.3"
"1432944000000","1117.44","1117.44","1015.07","1015.07"
"1433116800000","1117.44","1124.62","1095.58","1014.6"
"1433203200000","1103.26","1157.8","1032.66","978.67"
"1433289600000","1067.28","1129.69","1501.24","936.83"
"1433376000000","966.98","1052.61","1474.1","959.83"
"1433462400000","1001.73","1052.61","1059.64","972.33"
"1433548800000","1001.73","1052.61","1026.99","1026.78"
"1433635200000","1001.73","1052.61","1026.99","1026.99"
"1433721600000","1043.22","1084.32","1066.35","1006.46"
"1433808000000","1043.22","1084.32","1474.1","992.34"
"1433894400000","1084.32","1113.75","1474.1","1010.09"
"1433980800000","1113.75","1132.83","1617.49","1125.69"
"1434067200000","1111.15","1132.83","1617.49","1115.37"
"1434153600000","1111.15","1132.83","1115.37","1115.14"
"1434240000000","1111.15","1132.83","1115.14","1115.14"
"1434326400000","1111.15","1111.15","1135.97","1099.08"
"1434412800000","1111.15","1111.15","1131.87","1078.71"
"1434499200000","1156.72","1156.72","1119.38","1074.45"
"1434585600000","1156.72","1156.72","1116.5","1033.13"
"1434672000000","1128.17","1128.17","1138.1","1067.07"
"1434758400000","1128.17","1128.17","1111.04","1110.83"
"1434844800000","1128.17","1128.17","1110.83","1110.83"
"1434931200000","1128.17","1128.17","1110.83","1029.84"
"1435017600000","1076.55","1076.55","1150.42","1046.68"
"1435104000000","1076.55","1076.55","1143.28","1069.5"
"1435190400000","1076.55","1174.16","1518.8","1091.52"
"1435276800000","1159.47","1174.16","1518.8","1114.59"
"1435363200000","1159.47","1174.16","1155.39","1155.1"
"1435449600000","1159.47","1174.16","1155.1","1155.1"
"1435536000000","1236.24","1411.53","1622.35","1155.1"
"1435622400000","1411.53","1426.97","1539","1420.17"
"1435708800000","1411.53","1426.97","1531.23","1463.45"
"1435795200000","1411.53","1426.97","1529.92","1481.61"
"1435881600000","1411.53","1426.97","1536.65","1485.66"
"1435968000000","1411.53","1426.97","1501.24","1501.11"
"1436054400000","1411.53","1426.97","1501.11","1501.11"
"1436140800000","1411.53","1426.97","1651.98","1501.24"
"1436227200000","1411.53","1426.97","1675.14","1551.98"
"1436313600000","1411.53","1426.97","1690.77","1591.43"
"1436400000000","1411.53","1426.97","1688.29","1590.13"
"1436486400000","1411.53","1426.97","1657.69","1459.88"
"1436572800000","1411.53","1426.97","1474.23","1474.1"
"1436659200000","1411.53","1426.97","1474.1","1474.1"
"1436745600000","1411.53","1426.97","1547.75","1431.81"
"1436832000000","1411.53","1426.97","1571.08","1517.4"
"1436918400000","1423.24","1426.97","1563.69","1507.51"
"1437004800000","1423.24","1426.97","1596.23","1534.56"
"1437091200000","1423.24","1426.97","1619.46","1567.66"
"1437177600000","1423.24","1426.97","1617.49","1617.36"
"1437264000000","1423.24","1426.97","1617.36","1617.36"
"1437350400000","1423.24","1426.97","1619.02","1581.47"
"1437436800000","1423.24","1426.97","1610.04","1542.92"
"1437523200000","1423.24","1426.97","1590.15","1548.78"
"1437609600000","1423.24","1426.97","1558.38","1502.45"
"1437696000000","1423.24","1426.97","1551.09","1510.5"
"1437782400000","1423.24","1426.97","1529.23","1529.1"
"1437868800000","1423.24","1426.97","1529.1","1529.1"
"1437955200000","1423.24","1426.97","1539.88","1465.51"
"1438041600000","1423.24","1426.97","1504.38","1470.5"
"1438128000000","1423.24","1426.97","1524.02","1477.41"
"1438214400000","1423.24","1426.97","1550.05","1497.6"
"1438300800000","1423.24","1426.97","1548.33","1452.13"
"1438387200000","1423.24","1426.97","1518.93","1518.8"
"1438473600000","1423.24","1426.97","1518.8","1518.8"
"1438560000000","1423.24","1426.97","1547.22","1503.57"
"1438646400000","1423.24","1426.97","1563.46","1515.43"
"1438732800000","1423.24","1426.97","1580.26","1512.47"
"1438819200000","1423.24","1426.97","1532.23","1500.03"
"1438905600000","1423.24","1426.97","1544.33","1492.46"
"1438992000000","1423.24","1426.97","1511.83","1510.75"
"1439078400000","1423.24","1426.97","1510.75","1510.75"
"1439164800000","1423.24","1426.97","1516.32","1444.88"
"1439251200000","1423.24","1426.97","1476.6","1391.23"
"1439337600000","1423.24","1426.97","1407.61","1363.33"
"1439424000000","1423.24","1426.97","1404.94","1362.83"
"1439510400000","1423.24","1426.97","1412.15","1362.58"
"1439596800000","1423.24","1426.97","1401.69","1401.56"
"1439683200000","1423.24","1426.97","1401.56","1401.56"
"1439769600000","1423.24","1426.97","1431.79","1389.38"
"1439856000000","1423.24","1426.97","1461.14","1415.45"
"1439942400000","1423.24","1426.97","1459.33","1420.34"
"1440028800000","1423.24","1426.97","1427.42","1368.29"
"1440115200000","1423.24","1426.97","1397.92","1351.45"
"1440201600000","1423.24","1426.97","1352.16","1352.03"
"1440288000000","1423.24","1426.97","1352.03","1352.03"
"1440374400000","1423.24","1426.97","1526.57","1352.03"
"1440460800000","1423.24","1426.97","1496.46","1374.25"
"1440547200000","1423.24","1426.97","1557.59","1433.1"
"1440633600000","1423.24","1426.97","1565.81","1501"
"1440720000000","1423.24","1426.97","1560.72","1489.41"
"1440806400000","1423.24","1426.97","1514.14","1514.14"
"1440892800000","1423.24","1426.97","1514.14","1514.14"
"1440979200000","1423.24","1423.24","1607.83","1469.6"
"1441065600000","1510.9","1680.93","1859.07","1480.22"
"1441152000000","1510.9","1680.93","1855.26","1795.12"
"1441238400000","1510.9","1680.93","1947.42","1818.74"
"1441324800000","1510.9","1680.93","2003.43","1917.03"
"1441411200000","1510.9","1680.93","1976.27","1976.27"
"1441497600000","1510.9","1680.93","1977.44","1977.44"
"1441584000000","1680.93","1680.93","1978.62","1939.69"
"1441670400000","1680.93","1680.93","2004.91","1935.07"
"1441756800000","1784.29","1864.17","2061.64","1988.65"
"1441843200000","1784.29","1864.17","2035.18","1952.76"
"1441929600000","1784.29","1864.17","1978.93","1909.94"
"1442016000000","1784.29","1864.17","1921.7","1921.57"
"1442102400000","1784.29","1864.17","1921.57","1921.57"
"1442188800000","1784.29","1864.17","1989.32","1902.95"
"1442275200000","1784.29","1864.17","2020.7","1939.11"
"1442361600000","1784.29","1864.17","2011.69","1928.18"
"1442448000000","1784.29","1864.17","1957.51","1881.25"
"1442534400000","1784.29","1864.17","2001.05","1886.09"
"1442620800000","1784.29","1864.17","1985.43","1985.29"
"1442707200000","1784.29","1864.17","1985.29","1985.29"
"1442793600000","1784.29","1864.17","2033.46","1956.67"
"1442880000000","1784.29","1864.17","2117.44","2021.98"
"1442966400000","1784.29","1864.17","2129.13","2039.14"
"1443052800000","1784.29","1864.17","2076.89","2029.56"
"1443139200000","1784.29","1864.17","2071.04","2003.18"
"1443225600000","1784.29","1864.17","2016.59","2016.59"
"1443312000000","1784.29","1864.17","2016.59","2016.59"
"1443398400000","1784.29","1864.17","2080.56","2016.59"
"1443484800000","1784.29","1864.17","2064.39","2023.45"
"1443571200000","1784.29","1864.17","2102.47","2013.45"
"1443657600000","1784.29","1864.17","2109.44","2063.63"
"1443744000000","1784.29","1864.17","2077.9","2027.89"
"1443830400000","1784.29","1864.17","2051.7","2051.56"
"1443916800000","1784.29","1864.17","2051.56","2051.56"
"1444003200000","1784.29","1864.17","2051.88","1978.58"
"1444089600000","1784.29","1864.17","2052.46","1983.71"
"1444176000000","1989","1989","1993.44","1981.85"
"1444262400000","1989","1989","1986.33","1983.44"
"1444348800000","1989","1989","1989.74","1983.84"
"1444435200000","1989","1989","1988.97","1988.96"
"1444521600000","1989","1989","1988.96","1988.96"
"1444608000000","1989","1989","1990.36","1987.35"
"1444694400000","1989","1989","1991.35","1984.87"
"1444780800000","1989","1989","1986.65","1980.99"
"1444867200000","1989","1989","1981.17","1980.07"
"1444953600000","1998.52","1998.52","1982.77","1974.71"
"1445040000000","1998.52","1998.52","1974.99","1974.96"
"1445126400000","1998.52","1998.52","1974.96","1974.96"
"1445212800000","1998.52","1998.52","1987.56","1973.25"
"1445299200000","1998.52","1998.52","1996.19","1971.12"
"1445385600000","1998.52","1998.52","2000.59","1989.03"
"1445472000000","2005.76","2005.76","1993.11","1968.32"
"1445558400000","2005.76","2005.76","1996.43","1959.61"
"1445644800000","2005.76","2005.76","1987.89","1987.85"
"1445734800000","2005.76","2005.76","1987.85","1987.85"
"1445817600000","2005.76","2005.76","2002.58","1983.67"
"1445904000000","2005.76","2005.76","1994.93","1969.33"
"1445990400000","2005.76","2005.76","1991.33","1951.81"
"1446076800000","2005.76","2005.76","1989.73","1954.4"
"1446163200000","2005.76","2005.76","1961.23","1933.01"
"1446249600000","2005.76","2005.76","1941.7","1941.7"
"1446336000000","2005.76","2005.76","1941.7","1941.7"
"1446422400000","2005.76","2005.76","1983.51","1939.96"
"1446508800000","2044.01","2053.8","2065.82","1964.63"
"1446595200000","2044.01","2053.8","2089.25","2061.38"
"1446681600000","2044.01","2053.8","2081.22","2063.12"
"1446768000000","2044.01","2053.8","2080.19","2063.24"
"1446854400000","2044.01","2053.8","2065.53","2065.49"
"1446940800000","2044.01","2053.8","2065.49","2065.49"
"1447027200000","2044.01","2053.8","2066.85","2053.27"
"1447113600000","2044.01","2053.8","2073.6","2049.91"
"1447200000000","2044.01","2053.8","2062","2049.67"
"1447286400000","2069.54","2069.54","2097.77","2056.24"
"1447372800000","2069.54","2069.54","2102.51","2089.52"
"1447459200000","2069.54","2069.54","2092.03","2092"
"1447545600000","2069.54","2069.54","2092","2092"
"1447632000000","2069.54","2102.09","2108.48","2085.81"
"1447718400000","2069.54","2102.09","2095.59","2084.89"
"1447804800000","2102.09","2102.09","2100.75","2071.21"
"1447891200000","2102.09","2113.21","2122.67","2053.57"
"1447977600000","2113.21","2113.21","2123.47","2080.49"
"1448064000000","2113.21","2113.21","2109.07","2109.07"
"1448150400000","2113.21","2113.21","2109.07","2109.07"
"1448236800000","2120.9","2120.9","2138.58","2091.81"
"1448323200000","2120.9","2120.9","2179.43","2121.16"
"1448409600000","2120.9","2120.9","2180.51","2110.57"
"1448496000000","2120.9","2120.9","2142.08","2117.78"
"1448582400000","2120.9","2120.9","2150.48","2120.76"
"1448668800000","2120.9","2120.9","2146.11","2146.07"
"1448755200000","2120.9","2120.9","2146.07","2146.07"
"1448841600000","2120.9","2120.9","2149.29","2115.96"
"1448928000000","2120.9","2120.9","2148.33","2106.61"
"1449014400000","2120.9","2154.92","2173.15","2139.13"
"1449100800000","2154.9175","2156.65","2217.19","2159.09"
"1449187200000","2156.653","2198.76","2207.6","2171.01"
"1449273600000","2156.653","2198.76","2172.38","2170.71"
"1449360000000","2156.653","2198.76","2170.71","2170.71"
"1449446400000","2156.653","2198.76","2194.6","2170.71"
"1449532800000","2156.653","2198.76","2192.34","2164.4"
"1449619200000","2156.653","2198.76","2178.57","2132.17"
"1449705600000","2198.76","2198.76","2164.77","2130.28"
"1449792000000","2198.76","2198.76","2136.34","2097.47"
"1449878400000","2198.76","2198.76","2097.47","2097.4"
"1449964800000","2198.76","2198.76","2097.4","2097.4"
"1450051200000","2198.76","2198.76","2119.36","2081.69"
"1450137600000","2198.76","2198.76","2108.53","2055.8"
"1450224000000","2198.76","2198.76","2089.45","2059.13"
"1450310400000","2198.76","2198.76","2089.82","2044.94"
"1450396800000","2198.76","2198.76","2086.95","2061.04"
"1450483200000","2198.76","2198.76","2078.71","2077.27"
"1450569600000","2198.76","2198.76","2077.27","2077.27"
"1450656000000","2198.76","2198.76","2077.93","2047.29"
"1450742400000","2198.76","2198.76","2064.85","2041.53"
"1450828800000","2198.76","2198.76","2086.26","2051.54"
"1450915200000","2198.76","2198.76","2086.59","2067.6"
"1451001600000","2198.76","2198.76","2069","2069"
"1451088000000","2198.76","2198.76","2068.93","2068.93"
"1451174400000","2198.76","2198.76","2068.93","2068.93"
"1451260800000","2198.76","2198.76","2070.55","2040.45"
"1451347200000","2198.76","2198.76","2055.91","2034.23"
"1451433600000","2198.76","2198.76","2079.33","2053.67"
"1451520000000","2198.76","2198.76","2083.94","2065.08"
"1451606400000","2198.76","2198.76","2080.52","2080.45"
"1451692800000","2198.76","2198.76","2080.45","2080.38"
"1451779200000","2198.76","2198.76","2080.38","2080.38"
"1451865600000","2198.76","2198.76","2099.91","2059.75"
"1451952000000","2198.76","2198.76","2104.97","2065.77"
"1452038400000","2198.76","2198.76","2110.42","2063.69"
"1452124800000","2198.76","2198.76","2080.31","2024.32"
"1452211200000","2198.76","2198.76","2081.75","2037.27"
"1452297600000","2198.76","2198.76","2063.13","2063.06"
"1452384000000","2198.76","2198.76","2063.06","2063.06"
"1452470400000","2198.76","2198.76","2098.07","2059.46"
"1452556800000","2198.76","2198.76","2107.16","2064.73"
"1452643200000","2198.76","2198.76","2107.61","2078.95"
"1452729600000","2198.76","2198.76","2145.05","2086.16"
"1452816000000","2198.76","2198.76","2149.56","2058.94"
"1452902400000","2198.76","2198.76","2059.58","2059.52"
"1452988800000","2198.76","2198.76","2059.52","2059.52"
"1453075200000","2198.76","2198.76","2096.24","2059.52"
"1453161600000","2198.76","2198.76","2138.36","2070.81"
"1453248000000","2198.76","2198.76","2162.65","2110.91"
"1453334400000","2198.76","2198.76","2133.88","2092.72"
"1453420800000","2198.76","2198.76","2160.36","2103.63"
"1453507200000","2198.76","2198.76","2138.87","2138.87"
"1453593600000","2198.76","2198.76","2138.87","2138.87"
"1453680000000","2198.76","2198.76","2156.23","2121.38"
"1453766400000","2198.76","2198.76","2149.42","2124.14"
"1453852800000","2198.76","2198.76","2202.13","2121.72"
"1453939200000","2198.76","2198.76","2219.97","2190.76"
"1454025600000","2198.76","2198.76","2219.28","2189.23"
"1454112000000","2198.76","2198.76","2198.38","2198.3"
"1454198400000","2198.76","2198.76","2198.3","2198.3"
"1454284800000","2198.76","2198.76","2209.34","2163.24"
"1454371200000","2198.76","2198.76","2191.58","2136.31"
"1454457600000","2198.76","2198.76","2145.33","2073.56"
"1454544000000","2198.76","2198.76","2137.12","2090.33"
"1454630400000","2198.76","2198.76","2116.44","2074.83"
"1454716800000","2198.76","2198.76","2074.83","2074.76"
"1454803200000","2198.76","2198.76","2074.76","2074.76"
"1454889600000","2198.76","2198.76","2103.03","2074.76"
"1454976000000","2198.76","2198.76","2101.24","2045.97"
"1455062400000","2198.76","2198.76","2088.83","2053.62"
"1455148800000","2198.76","2198.76","2077.64","2034.71"
"1455235200000","2198.76","2198.76","2111.83","2033.93"
"1455321600000","2198.76","2198.76","2104.17","2104.14"
"1455408000000","2198.76","2198.76","2104.14","2104.14"
"1455494400000","2198.76","2198.76","2124.91","2100.12"
"1455580800000","2198.76","2198.76","2175.06","2109.72"
"1455667200000","2198.76","2198.76","2170.56","2170.56"
"1455753600000","2198.76","2198.76","2170.56","2170.56"
"1455840000000","2198.76","2198.76","2170.56","2170.56"
"1455926400000","2198.76","2198.76","2170.56","2170.56"
"1456012800000","2198.76","2198.76","2170.56","2170.56"
"1456099200000","2198.76","2198.76","2170.56","2170.56"
"1456185600000","2198.76","2198.76","2170.56","2170.56"
"1456272000000","2198.76","2198.76","2173.32","2140.61"
"1456358400000","2198.76","2198.76","2143","2119.51"
"1456444800000","2198.76","2198.76","2124.99","2081.97"
"1456531200000","2198.76","2198.76","2120.86","2116.28"
"1456617600000","2198.76","2198.76","2116.28","2116.28"
"1456704000000","2198.76","2198.76","2164.85","2116.28"
"1456790400000","2198.76","2198.76","2164.57","2126.2"
"1456876800000","2198.76","2198.76","2221.67","2145.57"
"1456963200000","2198.76","2198.76","2215.12","2189.71"
"1457049600000","2198.76","2198.76","2208.7","2184.99"
"1457136000000","2198.76","2198.76","2186.93","2186.86"
"1457222400000","2198.76","2198.76","2186.86","2186.86"
"1457308800000","2198.76","2198.76","2246.97","2186.41"
"1457395200000","2230.55","2233.9","2239.78","2221.63"
"1457481600000","2230.55","2233.9","2268.98","2233.49"
"1457568000000","2230.55","2233.9","2271.58","2254.42"
"1457654400000","2230.55","2233.9","2266.53","2253.52"
"1457740800000","2230.55","2233.9","2261.52","2261.5"
"1457827200000","2230.55","2233.9","2261.5","2261.5"
"1457913600000","2230.55","2233.9","2269.87","2260.03"
"1458000000000","2230.55","2233.9","2275.02","2262.4"
"1458086400000","2233.9","2233.9","2275.84","2241.14"
"1458172800000","2233.9","2233.9","2279.83","2236.08"
"1458259200000","2233.9","2233.9","2264.45","2239.7"
"1458345600000","2233.9","2233.9","2249.25","2249.25"
"1458432000000","2233.9","2233.9","2249.25","2249.25"
"1458518400000","2233.9","2233.9","2272.32","2249.25"
"1458604800000","2242.27","2242.27","2282.55","2251.98"
"1458691200000","2242.27","2242.27","2286.94","2271.27"
"1458777600000","2269.63","2269.63","2273.24","2269.63"
"1458864000000","2269.63","2269.63","2269.63","2269.63"
"1458950400000","2269.63","2269.63","2269.63","2269.63"
"1459036800000","2269.63","2269.63","2269.63","2269.63"
"1459123200000","2269.63","2269.63","2269.63","2269.63"
"1459209600000","2269.63","2269.63","2269.63","2269.63"
"1459296000000","2269.63","2269.63","2269.63","2269.63"
"1459382400000","2269.63","2269.63","2269.63","2269.63"
"1459468800000","2269.63","2269.63","2269.63","2269.63"
"1459555200000","2269.63","2269.63","2269.63","2269.63"
"1459641600000","2269.63","2269.63","2269.63","2269.63"
"1459728000000","2269.63","2269.63","2269.63","2269.63"
"1459814400000","2269.63","2269.63","2269.63","2269.63"
"1459900800000","2269.63","2269.63","2269.63","2269.63"
"1459987200000","2269.63","2269.63","2269.63","2269.63"
"1460073600000","2269.63","2269.63","2269.63","2269.63"
"1460160000000","2269.63","2269.63","2269.63","2269.63"
"1460246400000","2269.63","2269.63","2269.63","2269.63"
"1460332800000","2269.63","2269.63","2269.63","2269.63"
"1460419200000","2269.63","2269.63","2269.63","2269.63"
"1460505600000","2269.63","2269.63","2269.63","2269.63"
"1460592000000","2269.63","2269.63","2269.63","2269.63"
"1460678400000","2269.63","2269.63","2269.63","2269.63"
"1460764800000","2269.63","2269.63","2269.63","2269.63"
"1460851200000","2269.63","2269.63","2269.63","2269.63"
"1460937600000","2269.63","2269.63","2269.63","2269.63"
"1461024000000","2269.63","2269.63","2269.63","2269.63"
"1461110400000","2269.63","2269.63","2269.63","2269.63"
"1461196800000","2269.63","2269.63","2269.63","2269.63"
"1461283200000","2269.63","2269.63","2269.63","2269.63"
"1461369600000","2269.63","2269.63","2269.63","2269.63"
"1461456000000","2269.63","2269.63","2269.63","2269.63"
"1461542400000","2269.63","2269.63","2269.63","2269.63"
"1461628800000","2269.63","2269.63","2269.63","2269.63"
"1461715200000","2269.63","2269.63","2269.63","2269.63"
"1461801600000","2269.63","2269.63","2269.63","2269.63"
"1461888000000","2269.63","2269.63","2269.63","2269.63"
"1461974400000","2269.63","2269.63","2269.63","2269.63"
"1462060800000","2269.63","2269.63","2269.63","2269.63"
"1462147200000","2269.63","2269.63","2269.63","2269.63"
"1462233600000","2269.63","2269.63","2269.63","2269.63"
"1462320000000","2269.63","2269.63","2269.63","2269.63"
"1462406400000","2269.63","2269.63","2269.63","2269.63"
"1462492800000","2269.63","2269.63","2269.63","2269.63"
"1462579200000","2269.63","2269.63","2269.63","2269.63"
"1462665600000","2269.63","2269.63","2269.63","2269.63"
"1462752000000","2269.63","2269.63","2269.63","2258.41"
"1462838400000","2269.63","2269.63","2277.75","2256.15"
"1462924800000","2269.63","2273.21","2282.63","2250.86"
"1463011200000","2273.21","2273.21","2267.1","2209.95"
"1463097600000","2273.21","2273.21","2309.24","2244.25"
"1463184000000","2273.21","2273.21","2299.06","2298.85"
"1463270400000","2273.21","2273.21","2298.85","2298.85"
"1463356800000","2273.21","2296.38","2313.16","2293.29"
"1463443200000","2296.38","2296.38","2319.56","2294.93"
"1463529600000","2296.38","2296.38","2308.48","2255.37"
"1463616000000","2296.38","2296.38","2272.17","2212.17"
"1463702400000","2296.38","2296.38","2296.36","2253.64"
"1463788800000","2296.38","2296.38","2262.59","2262.04"
"1463875200000","2296.38","2296.38","2262.59","2262.59"
"1463961600000","2296.38","2304.84","2308.31","2246.74"
"1464048000000","2304.84","2304.84","2269.71","2172.63"
"1464134400000","2304.84","2304.84","2259.94","2208.7"
"1464220800000","2304.84","2304.84","2290.87","2212.27"
"1464307200000","2304.84","2304.84","2280.38","2208.14"
"1464393600000","2304.84","2304.84","2219.66","2219.66"
"1464480000000","2304.84","2304.84","2219.12","2219.12"
"1464566400000","2304.84","2304.84","2237.81","2162.34"
"1464652800000","2304.84","2386.02","2438.2","2221.95"
"1464739200000","2386.02","2386.02","2440.61","2357.09"
"1464825600000","2386.02","2386.02","2407.34","2329.1"
"1464912000000","2386.02","2499.55","2526.29","2348.04"
"1464998400000","2499.55","2499.55","2525.56","2525.42"
"1465084800000","2499.55","2499.55","2525.56","2525.56"
"1465171200000","2499.55","2499.55","2529.73","2511.16"
"1465257600000","2499.55","2540.68","2543.35","2523.97"
"1465344000000","2540.68","2540.68","2540.68","2540.68"
"1465430400000","2540.68","2540.68","2540.68","2540.68"
"1465516800000","2540.68","2540.68","2544.31","2528.38"
"1465603200000","2540.68","2540.68","2529.81","2529.61"
"1465689600000","2540.68","2540.68","2529.81","2529.81"
"1465776000000","2540.68","2540.68","2540.13","2525.82"
"1465862400000","2540.68","2540.68","2538.71","2516.6"
"1465948800000","2540.68","2540.68","2550.25","2517.94"
"1466035200000","2540.68","2540.68","2545.35","2504.7"
"1466121600000","2540.68","2540.68","2540.99","2526.2"
"1466208000000","2540.68","2540.68","2536.48","2535.89"
"1466294400000","2540.68","2540.68","2536.48","2536.48"
"1466380800000","2540.68","2540.68","2562.55","2536.48"
"1466467200000","2540.68","2540.68","2571.84","2553.57"
"1466553600000","2540.68","2540.68","2575.37","2551.19"
"1466640000000","2540.68","2591.68","2597.26","2566.42"
"1466726400000","2591.68","2591.68","2637.27","2553.9"
"1466812800000","2591.68","2591.68","2596.43","2596.32"
"1466899200000","2591.68","2591.68","2596.32","2596.32"
"1466985600000","2591.68","2591.68","2614","2525.5"
"1467072000000","2591.68","2591.68","2656.49","2536.49"
"1467158400000","2591.68","2591.68","2667","2595.82"
"1467244800000","2591.68","2591.68","2701.45","2612.56"
"1467331200000","2591.68","2591.68","2709.76","2619.85"
"1467417600000","2591.68","2591.68","2626.08","2625.97"
"1467504000000","2591.68","2591.68","2625.97","2625.97"
"1467590400000","2591.68","2591.68","2654.37","2621.59"
"1467676800000","2591.68","2591.68","2631.79","2524.11"
"1467763200000","2591.68","2591.68","2552.5","2397.12"
"1467849600000","2591.68","2591.68","2515.92","2436.7"
"1467936000000","2591.68","2591.68","2498.29","2387.71"
"1468022400000","2591.68","2591.68","2432.26","2432.15"
"1468108800000","2591.68","2591.68","2432.15","2432.15"
"1468195200000","2591.68","2591.68","2662.48","2431.23"
"1468281600000","2591.68","2591.68","2859.19","2620.51"
"1468368000000","2591.68","2591.68","2849.79","2764.16"
"1468454400000","2591.68","2591.68","2944.56","2770.43"
"1468540800000","2591.68","2591.68","2978.84","2827.65"
"1468627200000","2591.68","2591.68","2843.4","2843.29"
"1468713600000","2591.68","2591.68","2843.29","2843.29"
"1468800000000","2591.68","2591.68","2974.75","2843.29"
"1468886400000","2591.68","2591.68","2998.93","2921.13"
"1468972800000","2591.68","2591.68","3042.38","2938.01"
"1469059200000","2591.68","2591.68","3083.72","2902.72"
"1469145600000","2591.68","2591.68","2984.67","2914.54"
"1469232000000","2591.68","2591.68","2956.78","2954.3"
"1469318400000","2591.68","2591.68","2954.3","2954.3"
"1469404800000","2591.68","2591.68","3015.07","2928.79"
"1469491200000","2591.68","2591.68","2941.45","2768.86"
"1469577600000","2591.68","2591.68","2995.52","2824.81"
"1469664000000","2591.68","2591.68","2905.34","2817.73"
"1469750400000","2591.68","2591.68","2889.98","2571.48"
"1469836800000","2591.68","2591.68","2577.18","2576.97"
"1469923200000","2591.68","2591.68","2576.97","2576.97"
"1470009600000","2591.68","2591.68","2638.2","2575.79"
"1470096000000","2591.68","2591.68","2650.68","2442.02"
"1470182400000","2591.68","2591.68","2527.35","2449.26"
"1470268800000","2591.68","2591.68","2540.36","2457.25"
"1470355200000","2591.68","2591.68","2585.71","2456.91"
"1470441600000","2591.68","2591.68","2557.17","2557.05"
"1470528000000","2591.68","2591.68","2557.05","2557.05"
"1470614400000","2591.68","2591.68","2648.72","2557.05"
"1470700800000","2591.68","2591.68","2634.83","2557.58"
"1470787200000","2591.68","2591.68","2574.02","2465.42"
"1470873600000","2591.68","2591.68","2591.31","2469.7"
"1470960000000","2591.68","2600.81","2616.69","2464.19"
"1471046400000","2600.81","2600.81","2512.33","2512.2"
"1471132800000","2600.81","2600.81","2512.2","2512.2"
"1471219200000","2600.81","2600.81","2528.05","2462.86"
"1471305600000","2600.81","2600.81","2510.28","2300.64"
"1471392000000","2600.81","2600.81","2490.55","2359.25"
"1471478400000","2600.81","2600.81","2412.96","2303.28"
"1471564800000","2600.81","2600.81","2412.4","2333.34"
"1471651200000","2600.81","2600.81","2374.03","2373.87"
"1471737600000","2600.81","2600.81","2373.87","2373.87"
"1471824000000","2600.81","2600.81","2478","2373.87"
"1471910400000","2600.81","2600.81","2401.05","2341.71"
"1471996800000","2600.81","2600.81","2431.1","2368.02"
"1472083200000","2600.81","2600.81","2432.48","2390.4"
"1472169600000","2600.81","2603.15","2602.18","2365.41"
"1472256000000","2603.15","2603.15","2588.66","2588.52"
"1472342400000","2603.15","2603.15","2588.52","2588.52"
"1472428800000","2603.15","2619.71","2659.53","2588.52"
"1472515200000","2619.71","2619.71","2743.76","2583.72"
"1472601600000","2619.71","2656.4","2783.11","2715.02"
"1472688000000","2656.4","2656.4","2826.56","2738.42"
"1472774400000","2656.4","2656.4","2851.8","2739.26"
"1472860800000","2656.4","2656.4","2822.1","2821.91"
"1472947200000","2656.4","2656.4","2821.91","2821.91"
"1473033600000","2656.4","2656.4","2836.26","2749.24"
"1473120000000","2656.4","2656.4","2807.12","2629.79"
"1473206400000","2656.4","2656.4","2645.67","2555.54"
"1473292800000","2656.4","2656.4","2700.68","2575.89"
"1473379200000","2656.4","2656.4","2745.63","2637.44"
"1473465600000","2656.4","2656.4","2711.02","2710.9"
"1473552000000","2656.4","2656.4","2710.9","2710.9"
"1473638400000","2656.4","2656.4","2710.9","2590.19"
"1473724800000","2656.4","2656.4","2725.49","2571.63"
"1473811200000","2656.4","2671.04","2791.66","2676.41"
"1473897600000","2671.04","2671.04","2726.74","2641.98"
"1473984000000","2671.04","2671.04","2697.48","2620.87"
"1474070400000","2671.04","2671.04","2675.07","2674.95"
"1474156800000","2671.04","2671.04","2674.95","2674.95"
"1474243200000","2671.04","2671.04","2691.9","2605.86"
"1474329600000","2671.04","2671.04","2654.59","2597.79"
"1474416000000","2671.04","2671.04","2739.2","2447.72"
"1474502400000","2671.04","2671.04","2530.82","2425.24"
"1474588800000","2671.04","2679.36","2568.03","2501.86"
"1474675200000","2679.36","2679.36","2536.8","2536.8"
"1474761600000","2679.36","2679.36","2536.08","2535.95"
"1474848000000","2679.36","2679.36","2549.04","2449.77"
"1474934400000","2679.36","2679.36","2538.35","2433.05"
"1475020800000","2679.36","2679.36","2517.12","2451.67"
"1475107200000","2679.36","2679.36","2633.95","2497.05"
"1475193600000","2679.36","2679.36","2605.11","2510.06"
"1475280000000","2679.36","2679.36","2577.03","2576.75"
"1475366400000","2679.36","2679.36","2576.75","2576.75"
"1475452800000","2679.36","2679.36","2615.99","2565.74"
"1475539200000","2679.36","2686.85","2767.51","2607.16"
"1475625600000","2686.85","2699.57","2833.38","2737.2"
"1475712000000","2699.57","2749.9","2858.5","2806.16"
"1475798400000","2749.9","2749.9","2849.26","2772.69"
"1475884800000","2749.9","2749.9","2776.14","2775.97"
"1475971200000","2749.9","2749.9","2775.97","2775.97"
"1476057600000","2749.9","2749.9","2833.55","2769.06"
"1476144000000","2749.9","2749.9","2852.03","2793.96"
"1476230400000","2749.9","2749.9","2879.49","2799.7"
"1476316800000","2749.9","2749.9","2887.91","2804.71"
"1476403200000","2749.9","2749.9","2876.45","2821.27"
"1476489600000","2749.9","2749.9","2858.27","2858.1"
"1476576000000","2749.9","2749.9","2858.1","2858.1"
"1476662400000","2749.9","2749.9","2871.15","2833.1"
"1476748800000","2749.9","2749.9","2859.25","2827.07"
"1476835200000","2749.9","2749.9","2842.6","2792.4"
"1476921600000","2749.9","2749.9","2851.17","2802.38"
"1477008000000","2749.9","2843.51","2843.66","2834"
"1477094400000","2843.51","2843.51","2835","2834.99"
"1477180800000","2843.51","2843.51","2834.99","2834.99"
"1477267200000","2843.51","2843.51","2838.93","2830.85"
"1477353600000","2843.51","2843.51","2839.4","2770.92"
"1477440000000","2843.51","2843.51","2808.57","2760.76"
"1477526400000","2843.51","2843.51","2782.62","2744.15"
"1477612800000","2843.51","2843.51","2781.58","2727.34"
"1477699200000","2843.51","2843.51","2750.5","2750.5"
"1477789200000","2843.51","2843.51","2750.5","2750.5"
"1477872000000","2843.51","2843.51","2765.84","2731.02"
"1477958400000","2843.51","2843.51","2807.43","2727.76"
"1478044800000","2843.51","2843.51","2799.22","2709.26"
"1478131200000","2843.51","2843.51","2796.88","2737.33"
"1478217600000","2843.51","2843.51","2758.72","2651.88"
"1478304000000","2843.51","2843.51","2714.74","2714.53"
"1478390400000","2843.51","2843.51","2714.53","2714.53"
"1478476800000","2843.51","2843.51","2798.16","2708.63"
"1478563200000","2843.51","2843.51","2872.81","2739.42"
"1478649600000","2843.51","2843.51","2897.21","2576.21"
"1478736000000","2843.51","2843.51","2717.23","2594.31"
"1478822400000","2843.51","2843.51","2643.57","2553.23"
"1478908800000","2843.51","2843.69","2553.98","2553.8"
"1478995200000","2843.69","2843.69","2553.98","2553.98"
"1479081600000","2843.69","2843.69","2589.42","2521.04"
"1479168000000","2843.69","2878.52","2700.6","2524.89"
"1479254400000","2871.64","2871.64","2758.89","2612.93"
"1479340800000","2871.64","2871.64","2764.86","2581.88"
"1479427200000","2871.64","2897.73","2655.47","2498.82"
"1479513600000","2897.73","2897.73","2631.92","2631.92"
"1479600000000","2897.73","2897.73","2631.92","2631.92"
"1479686400000","2897.73","2897.73","2810.88","2624.33"
"1479772800000","2897.73","2897.73","2823.71","2692.74"
"1479859200000","2897.73","2897.73","2754.98","2624.34"
"1479945600000","2897.73","2897.73","2696.3","2572.78"
"1480032000000","2897.73","2907.74","2741.71","2602.62"
"1480118400000","2907.74","2907.74","2616.16","2616.16"
"1480204800000","2907.74","2907.74","2616.16","2616.16"
"1480291200000","2907.74","2907.74","2804.03","2598.85"
"1480377600000","2907.74","2908.05","2798.84","2687.49"
"1480464000000","2908.05","2909.33","2868.54","2715.57"
"1480550400000","2909.33","2959.07","2931.46","2745.35"
"1480636800000","2959.07","2959.07","2955.03","2916.19"
"1480723200000","2959.07","2959.07","2937.14","2937.14"
"1480809600000","2959.07","2959.07","2937.14","2937.14"
"1480896000000","2959.07","2961.56","2968.92","2904.37"
"1480982400000","2961.56","2962.87","2958.98","2935.9"
"1481068800000","2962.87","2962.87","2973.1","2942.04"
"1481155200000","2953.36","2987.96","2978.98","2964.05"
"1481241600000","2972.92","2987.41","2989.06","2969.02"
"1481328000000","2987.41","2987.41","2986.33","2986.33"
"1481414400000","2987.41","2987.41","2986.33","2986.33"
"1481500800000","2987.41","3001.07","3010.88","2984.46"
"1481587200000","3001.02","3005.96","3013.21","2986.73"
"1481673600000","3005.96","3005.96","3009.68","2993.17"
"1481760000000","3005.96","3016.29","3028.5","2997"
"1481846400000","3016.29","3018.2","3034.59","3021.07"
"1481932800000","3018.2","3018.2","3032.9","3032.87"
"1482019200000","3018.2","3018.2","3032.87","3032.87"
"1482105600000","3018.2","3030.97","3040.53","2925.91"
"1482192000000","3030.97","3043.4","3054.84","2969.79"
"1482278400000","3035.6","3077.37","3079.61","3037"
"1482364800000","3077.37","3079.91","3083.03","3069.64"
"1482451200000","3079.91","3079.91","3077.31","3056.68"
"1482537600000","3079.91","3079.91","3057.68","3057.68"
"1482624000000","3079.91","3079.91","3057.68","3057.68"
"1482710400000","3079.91","3079.91","3075.91","3057.68"
"1482796800000","3079.91","3079.91","3070.12","3046.73"
"1482883200000","3079.91","3079.91","3065.44","3024.74"
"1482969600000","3079.91","3079.91","3044","3017.19"
"1483056000000","3079.91","3079.91","3048.49","3016.08"
"1483142400000","3079.91","3079.91","3042.56","3042.54"
"1483228800000","3079.91","3079.91","3042.56","3042.54"
"1483315200000","3079.91","3079.91","3042.56","2980.36"
"1483401600000","3079.91","3082.38","3103.14","3006.25"
"1483488000000","3082.38","3085.75","3116.93","3076.02"
"1483574400000","3085.75","3122.04","3118.11","3097.14"
"1483660800000","3115.34","3116.01","3120.31","3074.61"
"1483747200000","3116.01","3116.01","3105.55","3105.55"
"1483833600000","3116.01","3116.01","3105.55","3105.55"
"1483920000000","3116.01","3122.98","3132.81","3092.45"
"1484006400000","3122.98","3128.5","3127.81","3085.77"
"1484092800000","3128.5","3132.77","3149.98","3061.41"
"1484179200000","3132.77","3132.77","3146.03","2922.49"
"1484265600000","3132.77","3223.92","3167.93","3126.96"
"1484352000000","3223.92","3223.92","3134.43","3134.15"
"1484438400000","3223.92","3223.92","3134.15","3134.15"
"1484524800000","3223.92","3223.92","3188.94","3133.32"
"1484611200000","3223.92","3232.9","3191.08","3034.5"
"1484697600000","3232.9","3281.91","3269.08","3050.32"
"1484784000000","3265.24","3290.38","3269.08","3261.39"
"1484870400000","3265.24","3275.5","3281.85","3247.09"
"1484956800000","3274.53","3274.53","3270.06","3270"
"1485043200000","3274.53","3274.53","3270.01","3270"
"1485129600000","3274.53","3278.93","3277.42","3242.68"
"1485216000000","3274.89","3283.3","3278.25","3264.47"
"1485302400000","3279.51","3279.51","3274.58","3219.72"
"1485388800000","3279.51","3294.42","3268.46","3208.54"
"1485475200000","3294.42","3298.88","3263.93","3216.51"
"1485561600000","3298.88","3299.76","3235.47","3234.54"
"1485648000000","3299.76","3299.76","3235.47","3235.42"
"1485734400000","3299.76","3304.03","3274.15","3225.33"
"1485820800000","3304.03","3304.03","3250.86","3184.36"
"1485907200000","3304.03","3312.23","3290.45","3221.37"
"1485993600000","3307.04","3328.41","3307.3","3274.12"
"1486080000000","3307.04","3309.65","3308.57","3302.1"
"1486166400000","3309.65","3309.65","3305.54","3305.47"
"1486252800000","3309.65","3309.65","3305.47","3305.47"
"1486339200000","3309.65","3309.65","3308.42","3290.21"
"1486425600000","3309.65","3318.68","3296","3235.39"
"1486512000000","3317.9","3325.5","3399.27","3275.37"
"1486598400000","3325.5","3422.49","3419.08","3383.31"
"1486684800000","3410.61","3422.8","3418.73","3410.07"
"1486771200000","3422.65","3422.65","3414.48","3414.41"
"1486857600000","3422.65","3422.65","3414.41","3414.41"
"1486944000000","3422.65","3426","3425.78","3413.49"
"1487030400000","3422.72","3435.07","3430.98","3413.37"
"1487116800000","3428.61","3432.44","3438.58","3422.45"
"1487203200000","3432.44","3440.25","3438.69","3386.22"
"1487289600000","3440.25","3448.43","3442.26","3414.15"
"1487376000000","3446.65","3446.65","3436.35","3436.24"
"1487462400000","3446.65","3446.65","3436.25","3436.24"
"1487548800000","3446.65","3452.32","3453.74","3428.91"
"1487635200000","3452.32","3467.77","3469.72","3432.47"
"1487721600000","3467.77","3477.39","3477.81","3432.47"
"1487808000000","3476.11","3483.2","3476.53","3458.41"
"1487894400000","3483.2","3485.55","3477.74","3448.19"
"1487980800000","3485.55","3485.55","3452.79","3452.67"
"1488067200000","3485.55","3485.55","3452.67","3452.67"
"1488153600000","3485.55","3491.03","3484.22","3452.67"
"1488240000000","3491.03","3498.64","3492.38","3386.24"
"1488326400000","3497.85","3530.78","3533.76","3438.26"
"1488412800000","3530.78","3537.21","3543.68","3519.4"
"1488499200000","3537.21","3548.73","3550.08","3527.08"
"1488585600000","3548.73","3548.73","3548.73","3548.73"
"1488672000000","3548.73","3548.73","3548.73","3548.73"
"1488758400000","3548.73","3555.12","3555.39","3542.77"
"1488844800000","3555.12","3556.05","3567.36","3550.3"
"1488931200000","3556.05","3570.68","3571.57","3556.83"
"1489017600000","3570.68","3600.24","3604.49","3561.4"
"1489104000000","3600.24","3608.12","3611.77","3597.85"
"1489190400000","3608.12","3608.12","3609.32","3609.31"
"1489276800000","3608.12","3608.12","3609.32","3609.32"
"1489363200000","3608.12","3619.19","3620.97","3602.82"
"1489449600000","3612.47","3612.5","3613.93","3580.49"
"1489536000000","3612.5","3623.82","3627.76","3581.3"
"1489622400000","3621.77","3641.66","3650.31","3586.32"
"1489708800000","3641.66","3667.9","3669.58","3646.83"
"1489795200000","3666.59","3666.59","3666.59","3666.59"
"1489881600000","3666.59","3666.59","3666.59","3666.59"
"1489968000000","3666.59","3681.99","3681.37","3655.69"
"1490054400000","3681.99","3707.47","3712.98","3650.72"
"1490140800000","3707.47","3710.09","3700.14","3604.13"
"1490227200000","3710.09","3732.76","3714.07","3660.34"
"1490313600000","3732.15","3734.1","3709.38","3658.58"
"1490400000000","3734.1","3734.1","3685.76","3685.63"
"1490486400000","3734.1","3734.1","3685.64","3685.63"
"1490572800000","3734.1","3735.43","3698.06","3639.59"
"1490659200000","3735.43","3747.02","3718.66","3661.56"
"1490745600000","3732.72","3754.19","3700.99","3645.93"
"1490832000000","3733.12","3772","3751.55","3659.02"
"1490918400000","3772","3876.03","3845.7","3724.83"
"1491004800000","3875.28","3875.28","3829.29","3829.02"
"1491091200000","3875.28","3875.28","3829.02","3829.02"
"1491177600000","3875.28","3875.28","3843.3","3742.76"
"1491264000000","3875.28","3882.91","3767.67","3575.87"
"1491350400000","3882.91","3903.09","3829.42","3646.24"
"1491436800000","3889.86","3896.31","3802.26","3691.23"
"1491523200000","3896.31","3899.63","3759.12","3608.62"
"1491609600000","3899.63","3955.98","3681.46","3625.77"
"1491696000000","3955.98","3955.98","3681.46","3681.46"
"1491782400000","3955.98","3961.37","3788.45","3681.46"
"1491868800000","3961.37","3970.77","3734.84","3646.36"
"1491955200000","3969.5","4096.59","3814.58","3633.1"
"1492041600000","4096.59","4106.2","3836.75","3714.46"
"1492128000000","4106.2","4107.23","3745.59","3666.36"
"1492214400000","4107.23","4107.23","3671.12","3666.36"
"1492300800000","4107.23","4107.23","3671.12","3671.12"
"1492387200000","4107.23","4115.75","3797.65","3642.11"
"1492473600000","4115.75","4136.4","4056.21","3728.02"
"1492560000000","4127.48","4159.44","4089.9","4017.59"
"1492646400000","4128.56","4146.57","4133.09","4015.07"
"1492732800000","4146.57","4155.48","4127.76","4052.16"
"1492819200000","4155.48","4155.48","4110.41","4109.91"
"1492905600000","4155.48","4155.48","4109.91","4109.91"
"1492992000000","4155.48","4326.69","4398.01","4109.91"
"1493078400000","4326.69","4360.62","4384.63","4297.85"
"1493164800000","4357.7","4387.92","4388.12","4351.14"
"1493251200000","4386.01","4409.01","4408.49","4355.38"
"1493337600000","4409.01","4418.93","4410.03","4385.79"
"1493424000000","4414.54","4414.54","4401.33","4400.84"
"1493510400000","4414.54","4414.54","4401.33","4401.32"
"1493596800000","4414.54","4427.25","4428.01","4388.05"
"1493683200000","4425.55","4444.8","4440.18","4420.53"
"1493769600000","4443.29","4445.14","4429.71","4349.07"
"1493856000000","4445.14","4450.16","4383.33","4325.52"
"1493942400000","4448.88","4448.88","4370.49","4245.18"
"1494028800000","4448.88","4448.88","4257.23","4256.37"
"1494115200000","4448.88","4448.88","4256.37","4256.37"
"1494201600000","4448.88","4531.52","4342.72","4192.72"
"1494288000000","4531.52","4531.52","4304.56","4224.63"
"1494374400000","4531.52","4531.52","4277.59","4170.99"
"1494460800000","4531.52","4539.51","4435.35","4195.34"
"1494547200000","4532.12","4542.06","4463.76","4405.12"
"1494633600000","4532.22","4532.22","4417.25","4417"
"1494720000000","4532.22","4532.22","4417","4417"
"1494806400000","4532.22","4534.15","4444.13","4404.4"
"1494892800000","4534.15","4534.15","4457.79","4395.15"
"1494979200000","4534.15","4534.15","4446.88","4326.29"
"1495065600000","4534.15","4549.44","4440.14","4319.67"
"1495152000000","4546.88","4554.72","4502.1","4405.49"
"1495238400000","4554.72","4554.72","4435.88","4435.71"
"1495324800000","4554.72","4554.72","4435.71","4435.71"
"1495411200000","4554.72","4554.72","4438.93","4322.99"
"1495497600000","4554.72","4554.72","4336.46","4262.41"
"1495584000000","4554.72","4557.51","4295.05","4220"
"1495670400000","4557.51","4557.51","4291.4","4139.06"
"1495756800000","4557.51","4557.51","4213.98","4014"
"1495843200000","4557.51","4557.51","4031.43","4031.07"
"1495929600000","4557.51","4557.51","4031.07","4031.07"
"1496016000000","4557.51","4557.51","4099.22","3951.95"
"1496102400000","4557.51","4562.27","4075.39","3983.73"
"1496188800000","4562.27","4571","4037.64","3887.94"
"1496275200000","4571","4576.87","3981.96","3825.63"
"1496361600000","4576.87","4587.52","3862.74","3720.08"
"1496448000000","4587.52","4587.52","3758.17","3758.17"
"1496534400000","4587.52","4587.52","3758.17","3758.17"
"1496620800000","4587.52","4587.52","3949.63","3730.03"
"1496707200000","4587.52","4593.18","3990.01","3784.62"
"1496793600000","4593.18","4608.16","4017.94","3840.31"
"1496880000000","4608.16","4608.16","3972.55","3836.88"
"1496966400000","4608.16","4608.16","3908.31","3823.85"
"1497052800000","4608.16","4608.16","3825.9","3825.54"
"1497139200000","4608.16","4608.16","3825.56","3825.54"
"1497225600000","4608.16","4608.16","3958.31","3825.56"
"1497312000000","4608.16","4608.16","3933.08","3804.63"
"1497398400000","4608.16","4608.16","3894.29","3766.44"
"1497484800000","4608.16","4618.73","4088.81","3800.04"
"1497571200000","4611.27","4611.27","4059.85","3969.65"
"1497657600000","4611.27","4611.27","3977.68","3977.28"
"1497744000000","4611.27","4611.27","3977.29","3977.28"
